module snippetbox

go 1.21.0

require (
	github.com/alexedwards/scs/mysqlstore v0.0.0-20230902070821-95fa2ac9d520 // indirect
	github.com/alexedwards/scs/v2 v2.5.1 // indirect
	github.com/go-sql-driver/mysql v1.7.1 // indirect
	github.com/julienschmidt/httprouter v1.3.0 // indirect
	golang.org/x/crypto v0.13.0 // indirect
)
